EESchema Schematic File Version 4
EELAYER 30 0
EELAYER END
$Descr A3 16535 11693
encoding utf-8
Sheet 1 1
Title ""
Date ""
Rev ""
Comp ""
Comment1 ""
Comment2 ""
Comment3 ""
Comment4 ""
$EndDescr
$Comp
L my_batteries:TP4056-MODULE U3
U 1 1 5E9380EE
P 6350 6700
F 0 "U3" H 6250 6600 60  0000 C CNN
F 1 "TP4056-MODULE" H 6200 6700 60  0000 C CNN
F 2 "myModules:TP4056-CHARGER" H 6350 6700 60  0001 C CNN
F 3 "" H 6350 6700 60  0000 C CNN
	1    6350 6700
	1    0    0    -1  
$EndComp
$Comp
L power-board-rescue:CONN_01X02 P1
U 1 1 5E938240
P 2900 6650
F 0 "P1" H 2900 6800 50  0000 C CNN
F 1 "SOLAR-PANNEL" V 3000 6650 50  0000 C CNN
F 2 "myConnectors:NINIGI_NS25-W2P" H 2900 6650 50  0001 C CNN
F 3 "" H 2900 6650 50  0000 C CNN
	1    2900 6650
	-1   0    0    1   
$EndComp
$Comp
L my_psu:LM2596-MODULE U1
U 1 1 5E9382CA
P 4850 6700
F 0 "U1" H 4600 6950 60  0000 C CNN
F 1 "MP1584-5V" H 4550 6450 60  0000 L CNN
F 2 "myPowerSupplies:MP1584-FIXED-MODULE" H 4850 6700 60  0001 C CNN
F 3 "" H 4850 6700 60  0000 C CNN
	1    4850 6700
	1    0    0    -1  
$EndComp
$Comp
L my_psu:MT3608-MODULE U4
U 1 1 5E9383DA
P 8750 7450
F 0 "U4" H 8750 7700 60  0000 C CNN
F 1 "XR2981" H 8550 7200 60  0000 L CNN
F 2 "myPowerSupplies:XR2981-MODULE" H 8750 7450 60  0001 C CNN
F 3 "" H 8750 7450 60  0000 C CNN
	1    8750 7450
	1    0    0    -1  
$EndComp
$Comp
L my_psu:MT3608-MODULE U5
U 1 1 5E9F5DDF
P 8750 6250
F 0 "U5" H 8750 6500 60  0000 C CNN
F 1 "MT3608" H 8550 6000 60  0000 L CNN
F 2 "myPowerSupplies:MT3608-MODULE" H 8750 6250 60  0001 C CNN
F 3 "" H 8750 6250 60  0000 C CNN
	1    8750 6250
	1    0    0    -1  
$EndComp
$Comp
L power:+5V #PWR01
U 1 1 5E9F5F39
P 9500 7250
F 0 "#PWR01" H 9500 7100 50  0001 C CNN
F 1 "+5V" H 9500 7390 50  0000 C CNN
F 2 "" H 9500 7250 50  0000 C CNN
F 3 "" H 9500 7250 50  0000 C CNN
	1    9500 7250
	1    0    0    -1  
$EndComp
$Comp
L power:GND #PWR02
U 1 1 5E9F603F
P 9400 7650
F 0 "#PWR02" H 9400 7400 50  0001 C CNN
F 1 "GND" H 9400 7500 50  0000 C CNN
F 2 "" H 9400 7650 50  0000 C CNN
F 3 "" H 9400 7650 50  0000 C CNN
	1    9400 7650
	1    0    0    -1  
$EndComp
$Comp
L my_ics:L293D U7
U 1 1 5E9F6383
P 9000 3750
F 0 "U7" H 9000 3750 60  0000 C CNN
F 1 "L293D" H 9000 4000 60  0000 C CNN
F 2 "Housings_DIP:DIP-16_W7.62mm_LongPads" H 9000 3750 60  0001 C CNN
F 3 "" H 9000 3750 60  0000 C CNN
	1    9000 3750
	1    0    0    -1  
$EndComp
$Comp
L power:GND #PWR03
U 1 1 5E9F63E5
P 9850 4350
F 0 "#PWR03" H 9850 4100 50  0001 C CNN
F 1 "GND" H 9850 4200 50  0000 C CNN
F 2 "" H 9850 4350 50  0000 C CNN
F 3 "" H 9850 4350 50  0000 C CNN
	1    9850 4350
	1    0    0    -1  
$EndComp
$Comp
L my_transistors:SUP90P06 Q2
U 1 1 5E9F67F4
P 7900 5250
F 0 "Q2" H 8100 5350 50  0000 L CNN
F 1 "SUP90P06" H 8100 5250 50  0000 L CNN
F 2 "Power_Integrations:TO-220" H 8150 5175 50  0001 L CIN
F 3 "" H 7900 5250 50  0000 L CNN
	1    7900 5250
	1    0    0    1   
$EndComp
$Comp
L power-board-rescue:R R2
U 1 1 5E9F69B1
P 7350 4950
F 0 "R2" V 7430 4950 50  0000 C CNN
F 1 "220" V 7350 4950 50  0000 C CNN
F 2 "Resistors_THT:R_Axial_DIN0207_L6.3mm_D2.5mm_P10.16mm_Horizontal" V 7280 4950 50  0001 C CNN
F 3 "" H 7350 4950 50  0000 C CNN
	1    7350 4950
	-1   0    0    1   
$EndComp
$Comp
L my_transistors:SUP90P06 Q1
U 1 1 5E9F6B49
P 7400 2950
F 0 "Q1" V 7300 3050 50  0000 L CNN
F 1 "AOI403" V 7650 2850 50  0000 L CNN
F 2 "TO_SOT_Packages_THT:TO-251AA" H 7650 2875 50  0001 L CIN
F 3 "" H 7400 2950 50  0000 L CNN
	1    7400 2950
	0    1    -1   0   
$EndComp
$Comp
L power-board-rescue:R R4
U 1 1 5E9F6C0C
P 7600 4950
F 0 "R4" V 7680 4950 50  0000 C CNN
F 1 "100K" V 7600 4950 50  0000 C CNN
F 2 "Resistors_THT:R_Axial_DIN0207_L6.3mm_D2.5mm_P10.16mm_Horizontal" V 7530 4950 50  0001 C CNN
F 3 "" H 7600 4950 50  0000 C CNN
	1    7600 4950
	-1   0    0    1   
$EndComp
$Comp
L power-board-rescue:R R1
U 1 1 5E9F6EC9
P 7050 3100
F 0 "R1" V 7130 3100 50  0000 C CNN
F 1 "100K" V 7050 3100 50  0000 C CNN
F 2 "Resistors_THT:R_Axial_DIN0207_L6.3mm_D2.5mm_P10.16mm_Horizontal" V 6980 3100 50  0001 C CNN
F 3 "" H 7050 3100 50  0000 C CNN
	1    7050 3100
	-1   0    0    1   
$EndComp
$Comp
L power-board-rescue:R R3
U 1 1 5E9F6F64
P 7350 3600
F 0 "R3" V 7430 3600 50  0000 C CNN
F 1 "220" V 7350 3600 50  0000 C CNN
F 2 "Resistors_THT:R_Axial_DIN0207_L6.3mm_D2.5mm_P10.16mm_Horizontal" V 7280 3600 50  0001 C CNN
F 3 "" H 7350 3600 50  0000 C CNN
	1    7350 3600
	-1   0    0    1   
$EndComp
$Comp
L power:+5V #PWR04
U 1 1 5E9F718B
P 7050 2750
F 0 "#PWR04" H 7050 2600 50  0001 C CNN
F 1 "+5V" H 7050 2890 50  0000 C CNN
F 2 "" H 7050 2750 50  0000 C CNN
F 3 "" H 7050 2750 50  0000 C CNN
	1    7050 2750
	1    0    0    -1  
$EndComp
$Comp
L power-board-rescue:CONN_01X02 P4
U 1 1 5E9F7323
P 10400 4800
F 0 "P4" H 10400 4950 50  0000 C CNN
F 1 "DC-MOTOR" V 10500 4800 50  0000 C CNN
F 2 "myConnectors:NINIGI_NS25-W2P" H 10400 4800 50  0001 C CNN
F 3 "" H 10400 4800 50  0000 C CNN
	1    10400 4800
	1    0    0    1   
$EndComp
$Comp
L power-board-rescue:C C1
U 1 1 5E9F76F2
P 9800 3300
F 0 "C1" H 9825 3400 50  0000 L CNN
F 1 "100nF" H 9550 3150 50  0000 L CNN
F 2 "Capacitors_ThroughHole:C_Rect_L7_W2.5_P5" H 9838 3150 50  0001 C CNN
F 3 "" H 9800 3300 50  0000 C CNN
	1    9800 3300
	1    0    0    -1  
$EndComp
$Comp
L power:GND #PWR05
U 1 1 5E9F78D4
P 9800 3550
F 0 "#PWR05" H 9800 3300 50  0001 C CNN
F 1 "GND" H 9800 3400 50  0000 C CNN
F 2 "" H 9800 3550 50  0000 C CNN
F 3 "" H 9800 3550 50  0000 C CNN
	1    9800 3550
	1    0    0    -1  
$EndComp
$Comp
L power-board-rescue:CONN_01X03 P3
U 1 1 5EA67E28
P 10400 2500
F 0 "P3" H 10400 2700 50  0000 C CNN
F 1 "MG996R" V 10500 2500 50  0000 C CNN
F 2 "Pin_Headers:Pin_Header_Straight_1x03" H 10400 2500 50  0001 C CNN
F 3 "" H 10400 2500 50  0000 C CNN
	1    10400 2500
	1    0    0    -1  
$EndComp
$Comp
L my-power:+VMOTOR #PWR06
U 1 1 5EA67FEC
P 8050 2300
F 0 "#PWR06" H 8050 2150 50  0001 C CNN
F 1 "+VMOTOR" H 8050 2450 50  0000 C CNN
F 2 "" H 8050 2300 50  0000 C CNN
F 3 "" H 8050 2300 50  0000 C CNN
	1    8050 2300
	1    0    0    -1  
$EndComp
$Comp
L my-power:+VMOTOR #PWR07
U 1 1 5EA68046
P 9500 5450
F 0 "#PWR07" H 9500 5300 50  0001 C CNN
F 1 "+VMOTOR" H 9500 5600 50  0000 C CNN
F 2 "" H 9500 5450 50  0000 C CNN
F 3 "" H 9500 5450 50  0000 C CNN
	1    9500 5450
	1    0    0    -1  
$EndComp
$Comp
L power:GND #PWR08
U 1 1 5EA689F6
P 7800 7650
F 0 "#PWR08" H 7800 7400 50  0001 C CNN
F 1 "GND" H 7800 7500 50  0000 C CNN
F 2 "" H 7800 7650 50  0000 C CNN
F 3 "" H 7800 7650 50  0000 C CNN
	1    7800 7650
	1    0    0    -1  
$EndComp
Text Notes 9450 6950 0    60   ~ 0
FP6293 5V\nfor SERVOMOTOR
$Comp
L power:GND #PWR09
U 1 1 5EA68C99
P 10100 2700
F 0 "#PWR09" H 10100 2450 50  0001 C CNN
F 1 "GND" H 10100 2550 50  0000 C CNN
F 2 "" H 10100 2700 50  0000 C CNN
F 3 "" H 10100 2700 50  0000 C CNN
	1    10100 2700
	1    0    0    -1  
$EndComp
Text Notes 4400 7300 0    60   ~ 0
MP1584 is optional\nif the solar panel is a true 5V or 6V panel\nTP4056 Vin must be < 8V
Text Notes 8450 2800 0    60   ~ 0
L293D for DC motor only
Text Notes 9050 2350 0    60   ~ 0
For servomotor only
Text GLabel 5450 3600 1    60   Input ~ 0
CHARGE-ENABLE
Text GLabel 6050 3600 1    60   Input ~ 0
L293D-EN-OR-PWM
Text GLabel 6350 3600 1    60   Input ~ 0
L293D-1A
Text GLabel 6500 3600 1    60   Input ~ 0
L293D-2A
Text GLabel 6650 3600 1    60   Input ~ 0
POWER-ON
$Comp
L my-power:+VBATT #PWR010
U 1 1 5EA81B2F
P 7700 6150
F 0 "#PWR010" H 7700 6000 50  0001 C CNN
F 1 "+VBATT" H 7700 6300 50  0000 C CNN
F 2 "" H 7700 6150 50  0000 C CNN
F 3 "" H 7700 6150 50  0000 C CNN
	1    7700 6150
	1    0    0    -1  
$EndComp
$Comp
L power:GND #PWR011
U 1 1 5EA823BE
P 5300 5000
F 0 "#PWR011" H 5300 4750 50  0001 C CNN
F 1 "GND" H 5300 4850 50  0000 C CNN
F 2 "" H 5300 5000 50  0000 C CNN
F 3 "" H 5300 5000 50  0000 C CNN
	1    5300 5000
	1    0    0    -1  
$EndComp
Text GLabel 5900 3600 1    60   Input ~ 0
VBATT
$Comp
L power:+5V #PWR012
U 1 1 5EA82D4E
P 5300 3700
F 0 "#PWR012" H 5300 3550 50  0001 C CNN
F 1 "+5V" H 5300 3840 50  0000 C CNN
F 2 "" H 5300 3700 50  0000 C CNN
F 3 "" H 5300 3700 50  0000 C CNN
	1    5300 3700
	1    0    0    -1  
$EndComp
$Comp
L my-power-monitors:ina138-module U2
U 1 1 5EA82140
P 4800 5500
F 0 "U2" H 4800 5950 60  0000 C CNN
F 1 "ina138-module" H 4850 5100 60  0000 C CNN
F 2 "myModules:ina138-module" H 4800 5500 60  0001 C CNN
F 3 "" H 4800 5500 60  0000 C CNN
	1    4800 5500
	1    0    0    -1  
$EndComp
Text GLabel 5750 3600 1    60   Input ~ 0
VPANEL
$Comp
L power:+5V #PWR013
U 1 1 5EA82A1B
P 5450 5150
F 0 "#PWR013" H 5450 5000 50  0001 C CNN
F 1 "+5V" H 5450 5290 50  0000 C CNN
F 2 "" H 5450 5150 50  0000 C CNN
F 3 "" H 5450 5150 50  0000 C CNN
	1    5450 5150
	1    0    0    -1  
$EndComp
$Comp
L power:GND #PWR014
U 1 1 5EA82AFE
P 5300 5700
F 0 "#PWR014" H 5300 5450 50  0001 C CNN
F 1 "GND" H 5300 5550 50  0000 C CNN
F 2 "" H 5300 5700 50  0000 C CNN
F 3 "" H 5300 5700 50  0000 C CNN
	1    5300 5700
	1    0    0    -1  
$EndComp
Text GLabel 5600 3600 1    60   Input ~ 0
IPANEL
$Comp
L power:GND #PWR015
U 1 1 5EA8484D
P 8100 7050
F 0 "#PWR015" H 8100 6800 50  0001 C CNN
F 1 "GND" H 8100 6900 50  0000 C CNN
F 2 "" H 8100 7050 50  0000 C CNN
F 3 "" H 8100 7050 50  0000 C CNN
	1    8100 7050
	1    0    0    -1  
$EndComp
$Comp
L my_transistors:SUP90P06 Q3
U 1 1 5EA94817
P 3800 6700
F 0 "Q3" V 3700 6800 50  0000 L CNN
F 1 "AOI403" V 4050 6600 50  0000 L CNN
F 2 "TO_SOT_Packages_THT:TO-251AA" H 4050 6625 50  0001 L CIN
F 3 "" H 3800 6700 50  0000 L CNN
	1    3800 6700
	0    1    -1   0   
$EndComp
$Comp
L power-board-rescue:R R5
U 1 1 5EA9481D
P 3500 6850
F 0 "R5" V 3580 6850 50  0000 C CNN
F 1 "100K" V 3500 6850 50  0000 C CNN
F 2 "Resistors_THT:R_Axial_DIN0207_L6.3mm_D2.5mm_P10.16mm_Horizontal" V 3430 6850 50  0001 C CNN
F 3 "" H 3500 6850 50  0000 C CNN
	1    3500 6850
	-1   0    0    1   
$EndComp
$Comp
L power-board-rescue:Q_NPN_EBC Q4
U 1 1 5EA98884
P 3650 7800
F 0 "Q4" H 3950 7850 50  0000 R CNN
F 1 "2N3904" H 4100 7750 50  0000 R CNN
F 2 "TO_SOT_Packages_THT:TO-92_Inline_Wide" H 3850 7900 50  0001 C CNN
F 3 "" H 3650 7800 50  0000 C CNN
	1    3650 7800
	1    0    0    -1  
$EndComp
$Comp
L power-board-rescue:R R6
U 1 1 5EA98DA7
P 3350 7550
F 0 "R6" V 3430 7550 50  0000 C CNN
F 1 "100K" V 3350 7550 50  0000 C CNN
F 2 "Resistors_THT:R_Axial_DIN0207_L6.3mm_D2.5mm_P10.16mm_Horizontal" V 3280 7550 50  0001 C CNN
F 3 "" H 3350 7550 50  0000 C CNN
	1    3350 7550
	-1   0    0    1   
$EndComp
$Comp
L power-board-rescue:R R7
U 1 1 5EA99379
P 3750 7350
F 0 "R7" V 3830 7350 50  0000 C CNN
F 1 "220" V 3750 7350 50  0000 C CNN
F 2 "Resistors_THT:R_Axial_DIN0207_L6.3mm_D2.5mm_P10.16mm_Horizontal" V 3680 7350 50  0001 C CNN
F 3 "" H 3750 7350 50  0000 C CNN
	1    3750 7350
	-1   0    0    1   
$EndComp
$Comp
L my_batteries:Dual-Battery-parallel BT1
U 1 1 5EAA8CDD
P 7450 6700
F 0 "BT1" H 7550 6700 50  0000 L CNN
F 1 "18650" H 7200 6600 50  0000 L CNN
F 2 "myBatteries:2x18650" V 7450 6740 50  0001 C CNN
F 3 "" V 7450 6740 50  0000 C CNN
	1    7450 6700
	-1   0    0    -1  
$EndComp
$Comp
L power:+5VP #PWR016
U 1 1 5EAA9AD3
P 9500 6650
F 0 "#PWR016" H 9500 6500 50  0001 C CNN
F 1 "+5VP" H 9500 6790 50  0000 C CNN
F 2 "" H 9500 6650 50  0000 C CNN
F 3 "" H 9500 6650 50  0000 C CNN
	1    9500 6650
	1    0    0    -1  
$EndComp
$Comp
L power:+5VP #PWR017
U 1 1 5EAA9E46
P 10100 2300
F 0 "#PWR017" H 10100 2150 50  0001 C CNN
F 1 "+5VP" H 10100 2440 50  0000 C CNN
F 2 "" H 10100 2300 50  0000 C CNN
F 3 "" H 10100 2300 50  0000 C CNN
	1    10100 2300
	1    0    0    -1  
$EndComp
$Comp
L power-board-rescue:Jumper_NC_Small JP1
U 1 1 5EAAE14B
P 7100 6600
F 0 "JP1" H 7100 6680 50  0000 C CNN
F 1 "IBATT" H 7110 6540 50  0000 C CNN
F 2 "Pin_Headers:Pin_Header_Straight_1x02" H 7100 6600 50  0001 C CNN
F 3 "" H 7100 6600 50  0000 C CNN
	1    7100 6600
	1    0    0    -1  
$EndComp
Text Notes 6800 7150 0    60   ~ 0
JUMPER to measure\nbattery current
Text Notes 3700 5200 0    60   ~ 0
INA138 to measure\npannel current\n(optional)
$Comp
L power-board-rescue:R R8
U 1 1 5EAB5C7D
P 9850 4100
F 0 "R8" V 9930 4100 50  0000 C CNN
F 1 "1.5" V 9850 4100 50  0000 C CNN
F 2 "Resistors_THT:R_Axial_DIN0207_L6.3mm_D2.5mm_P10.16mm_Horizontal" V 9780 4100 50  0001 C CNN
F 3 "" H 9850 4100 50  0000 C CNN
	1    9850 4100
	-1   0    0    1   
$EndComp
Text GLabel 6200 3600 1    60   Input ~ 0
IMOTOR
$Comp
L power-board-rescue:CONN_01X11 P2
U 1 1 5EAB765E
P 5000 4300
F 0 "P2" H 5000 4900 50  0000 C CNN
F 1 "ARDUINO" V 5100 4300 50  0000 C CNN
F 2 "Pin_Headers:Pin_Header_Straight_1x11" H 5000 4300 50  0001 C CNN
F 3 "" H 5000 4300 50  0000 C CNN
	1    5000 4300
	-1   0    0    1   
$EndComp
$Comp
L my_psu:FP6293-MODULE U6
U 1 1 5EA8461F
P 8750 6850
F 0 "U6" H 8750 7100 60  0000 C CNN
F 1 "FP6293-5V" H 8500 6600 60  0000 L CNN
F 2 "myPowerSupplies:MP6293-MODULE" H 8750 6850 60  0001 C CNN
F 3 "" H 8750 6850 60  0000 C CNN
	1    8750 6850
	1    0    0    -1  
$EndComp
Wire Wire Line
	5600 4800 5200 4800
Wire Wire Line
	5450 4700 5200 4700
Wire Wire Line
	10100 2500 10200 2500
Wire Wire Line
	10100 2300 10100 2500
Wire Wire Line
	9500 5450 9500 5550
Wire Wire Line
	9500 6650 9500 6750
Connection ~ 7450 6500
Wire Wire Line
	6900 6600 7000 6600
Connection ~ 7450 6900
Wire Wire Line
	7000 6800 7000 6900
Connection ~ 7700 6500
Wire Wire Line
	7700 6900 7700 6850
Wire Wire Line
	7000 6900 7450 6900
Wire Wire Line
	7450 6850 7450 6900
Wire Wire Line
	7700 6500 7450 6500
Wire Wire Line
	7450 6550 7450 6500
Wire Wire Line
	3750 7500 3750 7600
Wire Wire Line
	3350 7800 3450 7800
Wire Wire Line
	3350 7700 3350 7800
Wire Wire Line
	3350 4900 3350 7400
Connection ~ 3750 8100
Wire Wire Line
	3750 8000 3750 8100
Connection ~ 5450 4700
Wire Wire Line
	5450 3600 5450 4700
Connection ~ 5600 4800
Wire Wire Line
	3200 6600 3100 6600
Wire Wire Line
	3200 6300 3200 6600
Wire Wire Line
	4100 5600 4100 5800
Wire Wire Line
	3500 5400 3500 6600
Wire Wire Line
	4100 8100 4100 6800
Wire Wire Line
	3200 8100 3750 8100
Wire Wire Line
	3200 6700 3200 8100
Wire Wire Line
	3100 6700 3200 6700
Wire Wire Line
	5450 4900 3350 4900
Wire Wire Line
	3750 6900 3750 7100
Wire Wire Line
	3750 7100 3500 7100
Wire Wire Line
	3500 7100 3500 7000
Connection ~ 3750 7100
Wire Wire Line
	3500 6600 3600 6600
Connection ~ 3500 6600
Connection ~ 6800 3800
Connection ~ 4100 6300
Wire Wire Line
	5750 6300 4100 6300
Connection ~ 7700 6250
Wire Wire Line
	5900 6250 7700 6250
Connection ~ 7000 6450
Wire Wire Line
	7000 4700 7000 6450
Connection ~ 7350 4200
Wire Wire Line
	7350 3750 7350 4200
Wire Wire Line
	7350 5200 7350 5100
Connection ~ 7600 4700
Wire Wire Line
	7000 4700 7600 4700
Wire Wire Line
	8100 5750 8100 6350
Wire Wire Line
	5600 3600 5600 4800
Wire Wire Line
	5600 5200 5200 5200
Wire Wire Line
	5300 5600 5200 5600
Wire Wire Line
	5300 5700 5300 5600
Wire Wire Line
	5450 5400 5200 5400
Wire Wire Line
	5450 5150 5450 5400
Connection ~ 4200 5400
Wire Wire Line
	3500 5400 4200 5400
Wire Wire Line
	4400 5200 4200 5200
Connection ~ 4100 5800
Wire Wire Line
	4100 5800 4400 5800
Wire Wire Line
	4400 5600 4100 5600
Connection ~ 5750 4600
Wire Wire Line
	5750 4600 5200 4600
Wire Wire Line
	5750 3600 5750 4600
Wire Wire Line
	5200 4300 5300 4300
Wire Wire Line
	5300 4300 5300 3700
Wire Wire Line
	5200 4400 5900 4400
Wire Wire Line
	8000 5450 8000 5550
Wire Wire Line
	5300 4500 5300 5000
Wire Wire Line
	5200 4500 5300 4500
Wire Wire Line
	4200 5200 4200 5400
Wire Wire Line
	6650 3600 6650 4200
Connection ~ 6500 4100
Wire Wire Line
	6500 3600 6500 4100
Connection ~ 6350 4000
Wire Wire Line
	6350 3600 6350 4000
Connection ~ 6050 3800
Wire Wire Line
	6050 3600 6050 3800
Wire Wire Line
	5200 4000 6350 4000
Wire Wire Line
	5200 4100 6500 4100
Wire Wire Line
	6800 4100 6800 4300
Wire Wire Line
	6800 4300 8400 4300
Connection ~ 6650 4200
Wire Wire Line
	7000 6800 6900 6800
Wire Wire Line
	7700 6150 7700 6250
Wire Wire Line
	4000 6600 4300 6600
Wire Wire Line
	4100 6800 4300 6800
Wire Wire Line
	5600 6450 5500 6450
Wire Wire Line
	5500 6450 5500 6600
Wire Wire Line
	5500 6600 5400 6600
Wire Wire Line
	5400 6800 5500 6800
Wire Wire Line
	5500 6800 5500 6950
Wire Wire Line
	5500 6950 5600 6950
Wire Wire Line
	7900 7350 8200 7350
Wire Wire Line
	7900 6450 7900 7350
Wire Wire Line
	6900 6450 7000 6450
Wire Wire Line
	6900 6950 7800 6950
Wire Wire Line
	9500 7350 9300 7350
Wire Wire Line
	9400 7550 9300 7550
Wire Wire Line
	8200 5550 8000 5550
Wire Wire Line
	9500 7250 9500 7350
Wire Wire Line
	9300 5550 9500 5550
Wire Wire Line
	9700 3650 9600 3650
Wire Wire Line
	9600 3850 9700 3850
Connection ~ 9700 3850
Wire Wire Line
	8300 3650 8400 3650
Wire Wire Line
	8300 3850 8400 3850
Wire Wire Line
	7900 3050 8400 3050
Wire Wire Line
	7900 3800 7900 3050
Wire Wire Line
	5200 3800 6050 3800
Wire Wire Line
	7950 3200 8400 3200
Wire Wire Line
	7950 4000 7950 3200
Wire Wire Line
	7350 5200 7600 5200
Wire Wire Line
	8000 4700 8000 5050
Wire Wire Line
	7600 5200 7600 5100
Connection ~ 7600 5200
Wire Wire Line
	7600 4700 7600 4800
Wire Wire Line
	7350 3150 7350 3350
Wire Wire Line
	7350 3350 7050 3350
Wire Wire Line
	7050 3350 7050 3250
Connection ~ 7350 3350
Wire Wire Line
	7050 2750 7050 2850
Wire Wire Line
	7050 2850 7200 2850
Connection ~ 7050 2850
Wire Wire Line
	7600 2850 9700 2850
Wire Wire Line
	9700 2850 9700 3050
Wire Wire Line
	9600 3050 9700 3050
Wire Wire Line
	8050 2300 8050 4450
Wire Wire Line
	8050 4450 8400 4450
Wire Wire Line
	8150 3350 8400 3350
Wire Wire Line
	8400 4150 8200 4150
Wire Wire Line
	9800 3050 9800 3150
Connection ~ 9700 3050
Wire Wire Line
	9800 3550 9800 3450
Wire Wire Line
	8200 4150 8200 4750
Wire Wire Line
	8200 4750 10200 4750
Wire Wire Line
	8150 3350 8150 4850
Wire Wire Line
	8150 4850 10200 4850
Wire Wire Line
	5200 4200 6650 4200
Wire Wire Line
	8100 4650 10300 4650
Wire Wire Line
	9500 6750 9300 6750
Wire Wire Line
	8000 6750 8200 6750
Connection ~ 8000 5550
Wire Wire Line
	10100 2700 10100 2600
Wire Wire Line
	10100 2600 10200 2600
Wire Wire Line
	6800 2400 10200 2400
Wire Wire Line
	6800 3800 6800 2400
Wire Wire Line
	7200 6600 7300 6600
Wire Wire Line
	7300 6600 7300 6500
Wire Wire Line
	9850 3850 9850 3950
Wire Wire Line
	9850 4350 9850 4250
Wire Wire Line
	5200 3900 6200 3900
Wire Wire Line
	6200 3600 6200 3900
Connection ~ 6200 3900
Wire Wire Line
	5900 3600 5900 4400
Connection ~ 5900 4400
Wire Wire Line
	8100 5750 8200 5750
Wire Wire Line
	9400 5750 9300 5750
Wire Wire Line
	7800 6950 7800 7550
Wire Wire Line
	7800 7550 8200 7550
Connection ~ 7800 7550
Wire Wire Line
	8100 6950 8200 6950
Connection ~ 8100 6950
Connection ~ 9400 7550
Wire Wire Line
	9400 5750 9400 6350
$Comp
L my_psu:MT3608-MODULE U8
U 1 1 5EAC0D5B
P 8750 5650
F 0 "U8" H 8750 5900 60  0000 C CNN
F 1 "SX1308" H 8550 5400 60  0000 L CNN
F 2 "myPowerSupplies:SX1308-MODULE" H 8750 5650 60  0001 C CNN
F 3 "" H 8750 5650 60  0000 C CNN
	1    8750 5650
	1    0    0    -1  
$EndComp
Wire Wire Line
	8200 6150 8000 6150
Connection ~ 8000 6150
Wire Wire Line
	8100 6350 8200 6350
Connection ~ 8100 6350
Wire Wire Line
	9300 6350 9400 6350
Connection ~ 9400 6350
Wire Wire Line
	9500 6150 9300 6150
Connection ~ 9500 5550
Text Notes 9550 6100 0    60   ~ 0
MT3608\nor\nSX1308\nfor DC MOTOR
$Comp
L power-board-rescue:CP C2
U 1 1 5F2D1C87
P 10500 4100
F 0 "C2" H 10525 4200 50  0000 L CNN
F 1 "22µF 6.3V" H 10300 4000 50  0000 L CNN
F 2 "Capacitors_THT:CP_Radial_D4.0mm_P1.50mm" H 10538 3950 50  0001 C CNN
F 3 "" H 10500 4100 50  0000 C CNN
	1    10500 4100
	1    0    0    -1  
$EndComp
Wire Wire Line
	10500 3850 10500 3950
Connection ~ 9850 3850
$Comp
L power:GND #PWR018
U 1 1 5F2D1DCE
P 10500 4350
F 0 "#PWR018" H 10500 4100 50  0001 C CNN
F 1 "GND" H 10500 4200 50  0000 C CNN
F 2 "" H 10500 4350 50  0000 C CNN
F 3 "" H 10500 4350 50  0000 C CNN
	1    10500 4350
	1    0    0    -1  
$EndComp
Wire Wire Line
	10500 4350 10500 4250
$Comp
L power-board-rescue:R R9
U 1 1 6144645D
P 10100 3850
F 0 "R9" V 10180 3850 50  0000 C CNN
F 1 "1K" V 10100 3850 50  0000 C CNN
F 2 "Resistors_THT:R_Axial_DIN0207_L6.3mm_D2.5mm_P10.16mm_Horizontal" V 10030 3850 50  0001 C CNN
F 3 "" H 10100 3850 50  0000 C CNN
	1    10100 3850
	0    -1   -1   0   
$EndComp
Wire Wire Line
	10250 3850 10300 3850
Wire Wire Line
	9700 3650 9700 3850
Wire Wire Line
	10300 4650 10300 3850
Connection ~ 10300 3850
Wire Wire Line
	8300 3650 8300 3850
Wire Wire Line
	8100 3900 8100 4650
Wire Wire Line
	8300 4700 9700 4700
Connection ~ 8300 3850
Wire Wire Line
	7450 6500 7300 6500
Wire Wire Line
	7450 6900 7700 6900
Wire Wire Line
	7700 6500 7700 6550
Wire Wire Line
	3750 8100 4100 8100
Wire Wire Line
	5450 4700 5450 4900
Wire Wire Line
	5600 4800 5600 5200
Wire Wire Line
	3750 7100 3750 7200
Wire Wire Line
	3500 6600 3500 6700
Wire Wire Line
	6800 3800 7900 3800
Wire Wire Line
	4100 6300 3200 6300
Wire Wire Line
	7700 6250 7700 6500
Wire Wire Line
	7000 6450 7900 6450
Wire Wire Line
	7350 4200 7350 4800
Wire Wire Line
	7600 4700 8000 4700
Wire Wire Line
	4200 5400 4400 5400
Wire Wire Line
	4100 5800 4100 6300
Wire Wire Line
	5750 4600 5750 6300
Wire Wire Line
	6500 4100 6800 4100
Wire Wire Line
	6350 4000 7950 4000
Wire Wire Line
	6050 3800 6800 3800
Wire Wire Line
	6650 4200 7350 4200
Wire Wire Line
	9700 3850 9850 3850
Wire Wire Line
	9700 3850 9700 4700
Wire Wire Line
	7600 5200 7700 5200
Wire Wire Line
	7350 3350 7350 3450
Wire Wire Line
	7050 2850 7050 2950
Wire Wire Line
	9700 3050 9800 3050
Wire Wire Line
	8000 5550 8000 6150
Wire Wire Line
	6200 3900 8100 3900
Wire Wire Line
	5900 4400 5900 6250
Wire Wire Line
	7800 7550 7800 7650
Wire Wire Line
	8100 6950 8100 7050
Wire Wire Line
	9400 7550 9400 7650
Wire Wire Line
	8000 6150 8000 6750
Wire Wire Line
	8100 6350 8100 6950
Wire Wire Line
	9400 6350 9400 7550
Wire Wire Line
	9500 5550 9500 6150
Wire Wire Line
	9850 3850 9950 3850
Wire Wire Line
	10300 3850 10500 3850
Wire Wire Line
	8300 3850 8300 4700
$EndSCHEMATC
